{
    "version": 0,
    "command:": "",

    "nb_res": 7,
    "jobs": [
        {"id":100, "subtime":0, "walltime": 0.00001,  "res":  25, "profile": "1"},
        {"id":1, "subtime":0.00001, "walltime": 5, "res": 25, "profile": "1"},
        {"id":2, "subtime":0.00001, "walltime": 10, "res": 12, "profile": "1"},
        {"id":4, "subtime":0.00003, "walltime": 15, "res": 14, "profile": "1"},
        {"id":3, "subtime":2, "walltime": 9, "res": 50, "profile": "1"}
    ],

    "profiles": {
        "1": {
            "delay": 5,
            "type": "delay"
        }
    }
}
